^C:\UCENJE\GIT_PROJEKTI\MBSOFTWARE32BIT\MBSOFTWARE32BIT\MBSOFTWARE32BIT\GENERATEDFILES\QRC_MBSOFTWARE32BIT.CPP
/c /I.\INCLUDE /I.\GENERATEDFILES /I. /IC:\QT113\5.11.1\MSVC2015\INCLUDE /I.\GENERATEDFILES\DEBUG /IC:\QT113\5.11.1\MSVC2015\INCLUDE\QTCORE /IC:\QT113\5.11.1\MSVC2015\INCLUDE\QTGUI /IC:\QT113\5.11.1\MSVC2015\INCLUDE\QTANGLE /IC:\QT113\5.11.1\MSVC2015\INCLUDE\QTWIDGETS /Zi /nologo /W1 /WX- /diagnostics:classic /Od /Oy- /D UNICODE /D _UNICODE /D WIN32 /D WIN64 /D QT_DLL /D QT_CORE_LIB /D QT_GUI_LIB /D QT_WIDGETS_LIB /Gm- /EHsc /MDd /GS /fp:precise /Zc:wchar_t /Zc:forScope /Zc:inline /Fo"DEBUG\\" /Fd"DEBUG\VC141.PDB" /Gd /TP /analyze- /FC C:\UCENJE\GIT_PROJEKTI\MBSOFTWARE32BIT\MBSOFTWARE32BIT\MBSOFTWARE32BIT\GENERATEDFILES\QRC_MBSOFTWARE32BIT.CPP
^C:\UCENJE\GIT_PROJEKTI\MBSOFTWARE32BIT\MBSOFTWARE32BIT\MBSOFTWARE32BIT\STDAFX.CPP
/c /I.\INCLUDE /I.\GENERATEDFILES /I. /IC:\QT113\5.11.1\MSVC2015\INCLUDE /I.\GENERATEDFILES\DEBUG /IC:\QT113\5.11.1\MSVC2015\INCLUDE\QTCORE /IC:\QT113\5.11.1\MSVC2015\INCLUDE\QTGUI /IC:\QT113\5.11.1\MSVC2015\INCLUDE\QTANGLE /IC:\QT113\5.11.1\MSVC2015\INCLUDE\QTWIDGETS /Zi /nologo /W1 /WX- /diagnostics:classic /Od /Oy- /D UNICODE /D _UNICODE /D WIN32 /D WIN64 /D QT_DLL /D QT_CORE_LIB /D QT_GUI_LIB /D QT_WIDGETS_LIB /Gm- /EHsc /MDd /GS /fp:precise /Zc:wchar_t /Zc:forScope /Zc:inline /Yc"stdafx.h" /Fp"DEBUG\MBSOFTWARE32BIT.PCH" /Fo"DEBUG\\" /Fd"DEBUG\VC141.PDB" /Gd /TP /analyze- /FC C:\UCENJE\GIT_PROJEKTI\MBSOFTWARE32BIT\MBSOFTWARE32BIT\MBSOFTWARE32BIT\STDAFX.CPP
^C:\UCENJE\GIT_PROJEKTI\MBSOFTWARE32BIT\MBSOFTWARE32BIT\MBSOFTWARE32BIT\GENERATEDFILES\DEBUG\MOC_LOGINWINDOW.CPP
/c /I.\INCLUDE /I.\GENERATEDFILES /I. /IC:\QT113\5.11.1\MSVC2015\INCLUDE /I.\GENERATEDFILES\DEBUG /IC:\QT113\5.11.1\MSVC2015\INCLUDE\QTCORE /IC:\QT113\5.11.1\MSVC2015\INCLUDE\QTGUI /IC:\QT113\5.11.1\MSVC2015\INCLUDE\QTANGLE /IC:\QT113\5.11.1\MSVC2015\INCLUDE\QTWIDGETS /Zi /nologo /W1 /WX- /diagnostics:classic /Od /Oy- /D UNICODE /D _UNICODE /D WIN32 /D WIN64 /D QT_DLL /D QT_CORE_LIB /D QT_GUI_LIB /D QT_WIDGETS_LIB /Gm- /EHsc /MDd /GS /fp:precise /Zc:wchar_t /Zc:forScope /Zc:inline /Fo"DEBUG\\" /Fd"DEBUG\VC141.PDB" /Gd /TP /analyze- /FC C:\UCENJE\GIT_PROJEKTI\MBSOFTWARE32BIT\MBSOFTWARE32BIT\MBSOFTWARE32BIT\GENERATEDFILES\DEBUG\MOC_LOGINWINDOW.CPP
^C:\UCENJE\GIT_PROJEKTI\MBSOFTWARE32BIT\MBSOFTWARE32BIT\MBSOFTWARE32BIT\GENERATEDFILES\DEBUG\MOC_LPTCONTROL.CPP
/c /I.\INCLUDE /I.\GENERATEDFILES /I. /IC:\QT113\5.11.1\MSVC2015\INCLUDE /I.\GENERATEDFILES\DEBUG /IC:\QT113\5.11.1\MSVC2015\INCLUDE\QTCORE /IC:\QT113\5.11.1\MSVC2015\INCLUDE\QTGUI /IC:\QT113\5.11.1\MSVC2015\INCLUDE\QTANGLE /IC:\QT113\5.11.1\MSVC2015\INCLUDE\QTWIDGETS /Zi /nologo /W1 /WX- /diagnostics:classic /Od /Oy- /D UNICODE /D _UNICODE /D WIN32 /D WIN64 /D QT_DLL /D QT_CORE_LIB /D QT_GUI_LIB /D QT_WIDGETS_LIB /Gm- /EHsc /MDd /GS /fp:precise /Zc:wchar_t /Zc:forScope /Zc:inline /Fo"DEBUG\\" /Fd"DEBUG\VC141.PDB" /Gd /TP /analyze- /FC C:\UCENJE\GIT_PROJEKTI\MBSOFTWARE32BIT\MBSOFTWARE32BIT\MBSOFTWARE32BIT\GENERATEDFILES\DEBUG\MOC_LPTCONTROL.CPP
^C:\UCENJE\GIT_PROJEKTI\MBSOFTWARE32BIT\MBSOFTWARE32BIT\MBSOFTWARE32BIT\GENERATEDFILES\DEBUG\MOC_MBSOFTWARE32BIT.CPP
/c /I.\INCLUDE /I.\GENERATEDFILES /I. /IC:\QT113\5.11.1\MSVC2015\INCLUDE /I.\GENERATEDFILES\DEBUG /IC:\QT113\5.11.1\MSVC2015\INCLUDE\QTCORE /IC:\QT113\5.11.1\MSVC2015\INCLUDE\QTGUI /IC:\QT113\5.11.1\MSVC2015\INCLUDE\QTANGLE /IC:\QT113\5.11.1\MSVC2015\INCLUDE\QTWIDGETS /Zi /nologo /W1 /WX- /diagnostics:classic /Od /Oy- /D UNICODE /D _UNICODE /D WIN32 /D WIN64 /D QT_DLL /D QT_CORE_LIB /D QT_GUI_LIB /D QT_WIDGETS_LIB /Gm- /EHsc /MDd /GS /fp:precise /Zc:wchar_t /Zc:forScope /Zc:inline /Fo"DEBUG\\" /Fd"DEBUG\VC141.PDB" /Gd /TP /analyze- /FC C:\UCENJE\GIT_PROJEKTI\MBSOFTWARE32BIT\MBSOFTWARE32BIT\MBSOFTWARE32BIT\GENERATEDFILES\DEBUG\MOC_MBSOFTWARE32BIT.CPP
^C:\UCENJE\GIT_PROJEKTI\MBSOFTWARE32BIT\MBSOFTWARE32BIT\MBSOFTWARE32BIT\LOGINWINDOW.CPP
/c /I.\INCLUDE /I.\GENERATEDFILES /I. /IC:\QT113\5.11.1\MSVC2015\INCLUDE /I.\GENERATEDFILES\DEBUG /IC:\QT113\5.11.1\MSVC2015\INCLUDE\QTCORE /IC:\QT113\5.11.1\MSVC2015\INCLUDE\QTGUI /IC:\QT113\5.11.1\MSVC2015\INCLUDE\QTANGLE /IC:\QT113\5.11.1\MSVC2015\INCLUDE\QTWIDGETS /Zi /nologo /W1 /WX- /diagnostics:classic /Od /Oy- /D UNICODE /D _UNICODE /D WIN32 /D WIN64 /D QT_DLL /D QT_CORE_LIB /D QT_GUI_LIB /D QT_WIDGETS_LIB /Gm- /EHsc /MDd /GS /fp:precise /Zc:wchar_t /Zc:forScope /Zc:inline /Fo"DEBUG\\" /Fd"DEBUG\VC141.PDB" /Gd /TP /analyze- /FC C:\UCENJE\GIT_PROJEKTI\MBSOFTWARE32BIT\MBSOFTWARE32BIT\MBSOFTWARE32BIT\LOGINWINDOW.CPP
^C:\UCENJE\GIT_PROJEKTI\MBSOFTWARE32BIT\MBSOFTWARE32BIT\MBSOFTWARE32BIT\LPTCONTROL.CPP
/c /I.\INCLUDE /I.\GENERATEDFILES /I. /IC:\QT113\5.11.1\MSVC2015\INCLUDE /I.\GENERATEDFILES\DEBUG /IC:\QT113\5.11.1\MSVC2015\INCLUDE\QTCORE /IC:\QT113\5.11.1\MSVC2015\INCLUDE\QTGUI /IC:\QT113\5.11.1\MSVC2015\INCLUDE\QTANGLE /IC:\QT113\5.11.1\MSVC2015\INCLUDE\QTWIDGETS /Zi /nologo /W1 /WX- /diagnostics:classic /Od /Oy- /D UNICODE /D _UNICODE /D WIN32 /D WIN64 /D QT_DLL /D QT_CORE_LIB /D QT_GUI_LIB /D QT_WIDGETS_LIB /Gm- /EHsc /MDd /GS /fp:precise /Zc:wchar_t /Zc:forScope /Zc:inline /Yu"stdafx.h" /Fp"DEBUG\MBSOFTWARE32BIT.PCH" /Fo"DEBUG\\" /Fd"DEBUG\VC141.PDB" /Gd /TP /analyze- /FC C:\UCENJE\GIT_PROJEKTI\MBSOFTWARE32BIT\MBSOFTWARE32BIT\MBSOFTWARE32BIT\LPTCONTROL.CPP
^C:\UCENJE\GIT_PROJEKTI\MBSOFTWARE32BIT\MBSOFTWARE32BIT\MBSOFTWARE32BIT\MBSOFTWARE32BIT.CPP
/c /I.\INCLUDE /I.\GENERATEDFILES /I. /IC:\QT113\5.11.1\MSVC2015\INCLUDE /I.\GENERATEDFILES\DEBUG /IC:\QT113\5.11.1\MSVC2015\INCLUDE\QTCORE /IC:\QT113\5.11.1\MSVC2015\INCLUDE\QTGUI /IC:\QT113\5.11.1\MSVC2015\INCLUDE\QTANGLE /IC:\QT113\5.11.1\MSVC2015\INCLUDE\QTWIDGETS /Zi /nologo /W1 /WX- /diagnostics:classic /Od /Oy- /D UNICODE /D _UNICODE /D WIN32 /D WIN64 /D QT_DLL /D QT_CORE_LIB /D QT_GUI_LIB /D QT_WIDGETS_LIB /Gm- /EHsc /MDd /GS /fp:precise /Zc:wchar_t /Zc:forScope /Zc:inline /Yu"stdafx.h" /Fp"DEBUG\MBSOFTWARE32BIT.PCH" /Fo"DEBUG\\" /Fd"DEBUG\VC141.PDB" /Gd /TP /analyze- /FC C:\UCENJE\GIT_PROJEKTI\MBSOFTWARE32BIT\MBSOFTWARE32BIT\MBSOFTWARE32BIT\MBSOFTWARE32BIT.CPP
^C:\UCENJE\GIT_PROJEKTI\MBSOFTWARE32BIT\MBSOFTWARE32BIT\MBSOFTWARE32BIT\MAIN.CPP
/c /I.\INCLUDE /I.\GENERATEDFILES /I. /IC:\QT113\5.11.1\MSVC2015\INCLUDE /I.\GENERATEDFILES\DEBUG /IC:\QT113\5.11.1\MSVC2015\INCLUDE\QTCORE /IC:\QT113\5.11.1\MSVC2015\INCLUDE\QTGUI /IC:\QT113\5.11.1\MSVC2015\INCLUDE\QTANGLE /IC:\QT113\5.11.1\MSVC2015\INCLUDE\QTWIDGETS /Zi /nologo /W1 /WX- /diagnostics:classic /Od /Oy- /D UNICODE /D _UNICODE /D WIN32 /D WIN64 /D QT_DLL /D QT_CORE_LIB /D QT_GUI_LIB /D QT_WIDGETS_LIB /Gm- /EHsc /MDd /GS /fp:precise /Zc:wchar_t /Zc:forScope /Zc:inline /Yu"stdafx.h" /Fp"DEBUG\MBSOFTWARE32BIT.PCH" /Fo"DEBUG\\" /Fd"DEBUG\VC141.PDB" /Gd /TP /analyze- /FC C:\UCENJE\GIT_PROJEKTI\MBSOFTWARE32BIT\MBSOFTWARE32BIT\MBSOFTWARE32BIT\MAIN.CPP
