^C:\UCENJE\GIT_PROJEKTI\MBSOFTWARE32BIT\MBSOFTWARE32BIT\MBSOFTWARE32BIT\DEBUG\LOGINWINDOW.OBJ|C:\UCENJE\GIT_PROJEKTI\MBSOFTWARE32BIT\MBSOFTWARE32BIT\MBSOFTWARE32BIT\DEBUG\LPTCONTROL.OBJ|C:\UCENJE\GIT_PROJEKTI\MBSOFTWARE32BIT\MBSOFTWARE32BIT\MBSOFTWARE32BIT\DEBUG\MAIN.OBJ|C:\UCENJE\GIT_PROJEKTI\MBSOFTWARE32BIT\MBSOFTWARE32BIT\MBSOFTWARE32BIT\DEBUG\MBSOFTWARE32BIT.OBJ|C:\UCENJE\GIT_PROJEKTI\MBSOFTWARE32BIT\MBSOFTWARE32BIT\MBSOFTWARE32BIT\DEBUG\MBSOFTWARE32BIT.RES|C:\UCENJE\GIT_PROJEKTI\MBSOFTWARE32BIT\MBSOFTWARE32BIT\MBSOFTWARE32BIT\DEBUG\MOC_LOGINWINDOW.OBJ|C:\UCENJE\GIT_PROJEKTI\MBSOFTWARE32BIT\MBSOFTWARE32BIT\MBSOFTWARE32BIT\DEBUG\MOC_LPTCONTROL.OBJ|C:\UCENJE\GIT_PROJEKTI\MBSOFTWARE32BIT\MBSOFTWARE32BIT\MBSOFTWARE32BIT\DEBUG\MOC_MBSOFTWARE32BIT.OBJ|C:\UCENJE\GIT_PROJEKTI\MBSOFTWARE32BIT\MBSOFTWARE32BIT\MBSOFTWARE32BIT\DEBUG\QRC_MBSOFTWARE32BIT.OBJ|C:\UCENJE\GIT_PROJEKTI\MBSOFTWARE32BIT\MBSOFTWARE32BIT\MBSOFTWARE32BIT\DEBUG\STDAFX.OBJ
/OUT:"C:\UCENJE\GIT_PROJEKTI\MBSOFTWARE32BIT\MBSOFTWARE32BIT\WIN32\DEBUG\\MBSOFTWARE32BIT.EXE" /NOLOGO /LIBPATH:.\LIB /LIBPATH:C:\QT113\5.11.1\MSVC2015\LIB QTMAIND.LIB QT5CORED.LIB QT5GUID.LIB QT5WIDGETSD.LIB TVICHW32.LIB KERNEL32.LIB USER32.LIB GDI32.LIB WINSPOOL.LIB COMDLG32.LIB ADVAPI32.LIB SHELL32.LIB OLE32.LIB OLEAUT32.LIB UUID.LIB ODBC32.LIB ODBCCP32.LIB /MANIFEST /MANIFESTUAC:"level='asInvoker' uiAccess='false'" /manifest:embed /DEBUG /PDB:"C:\UCENJE\GIT_PROJEKTI\MBSOFTWARE32BIT\MBSOFTWARE32BIT\WIN32\DEBUG\MBSOFTWARE32BIT.PDB" /SUBSYSTEM:WINDOWS /TLBID:1 /DYNAMICBASE /NXCOMPAT /IMPLIB:"C:\UCENJE\GIT_PROJEKTI\MBSOFTWARE32BIT\MBSOFTWARE32BIT\WIN32\DEBUG\MBSOFTWARE32BIT.LIB" /MACHINE:X86 /SAFESEH:NO DEBUG\MBSOFTWARE32BIT.RESDEBUG\LOGINWINDOW.OBJDEBUG\LPTCONTROL.OBJDEBUG\MAIN.OBJDEBUG\MBSOFTWARE32BIT.OBJDEBUG\STDAFX.OBJDEBUG\MOC_MBSOFTWARE32BIT.OBJDEBUG\MOC_LPTCONTROL.OBJDEBUG\MOC_LOGINWINDOW.OBJDEBUG\QRC_MBSOFTWARE32BIT.OBJ
^D:\GIT_MBVISION\MBSOFTWARE32BIT\MBSOFTWARE32BIT\MBSOFTWARE32BIT\DEBUG\LOGINWINDOW.OBJ|D:\GIT_MBVISION\MBSOFTWARE32BIT\MBSOFTWARE32BIT\MBSOFTWARE32BIT\DEBUG\LPTCONTROL.OBJ|D:\GIT_MBVISION\MBSOFTWARE32BIT\MBSOFTWARE32BIT\MBSOFTWARE32BIT\DEBUG\MAIN.OBJ|D:\GIT_MBVISION\MBSOFTWARE32BIT\MBSOFTWARE32BIT\MBSOFTWARE32BIT\DEBUG\MBSOFTWARE32BIT.OBJ|D:\GIT_MBVISION\MBSOFTWARE32BIT\MBSOFTWARE32BIT\MBSOFTWARE32BIT\DEBUG\MBSOFTWARE32BIT.RES|D:\GIT_MBVISION\MBSOFTWARE32BIT\MBSOFTWARE32BIT\MBSOFTWARE32BIT\DEBUG\MOC_LOGINWINDOW.OBJ|D:\GIT_MBVISION\MBSOFTWARE32BIT\MBSOFTWARE32BIT\MBSOFTWARE32BIT\DEBUG\MOC_LPTCONTROL.OBJ|D:\GIT_MBVISION\MBSOFTWARE32BIT\MBSOFTWARE32BIT\MBSOFTWARE32BIT\DEBUG\MOC_MBSOFTWARE32BIT.OBJ|D:\GIT_MBVISION\MBSOFTWARE32BIT\MBSOFTWARE32BIT\MBSOFTWARE32BIT\DEBUG\QRC_MBSOFTWARE32BIT.OBJ|D:\GIT_MBVISION\MBSOFTWARE32BIT\MBSOFTWARE32BIT\MBSOFTWARE32BIT\DEBUG\STDAFX.OBJ
/OUT:"D:\GIT_MBVISION\MBSOFTWARE32BIT\MBSOFTWARE32BIT\WIN32\DEBUG\\MBSOFTWARE32BIT.EXE" /NOLOGO /LIBPATH:.\LIB /LIBPATH:C:\QT1\5.11.1\MSVC2015\LIB QTMAIND.LIB QT5CORED.LIB QT5GUID.LIB QT5WIDGETSD.LIB TVICHW32.LIB KERNEL32.LIB USER32.LIB GDI32.LIB WINSPOOL.LIB COMDLG32.LIB ADVAPI32.LIB SHELL32.LIB OLE32.LIB OLEAUT32.LIB UUID.LIB ODBC32.LIB ODBCCP32.LIB /MANIFEST /MANIFESTUAC:"level='asInvoker' uiAccess='false'" /manifest:embed /DEBUG /PDB:"D:\GIT_MBVISION\MBSOFTWARE32BIT\MBSOFTWARE32BIT\WIN32\DEBUG\MBSOFTWARE32BIT.PDB" /SUBSYSTEM:WINDOWS /TLBID:1 /DYNAMICBASE /NXCOMPAT /IMPLIB:"D:\GIT_MBVISION\MBSOFTWARE32BIT\MBSOFTWARE32BIT\WIN32\DEBUG\MBSOFTWARE32BIT.LIB" /MACHINE:X86 /SAFESEH:NO DEBUG\MBSOFTWARE32BIT.RESDEBUG\LOGINWINDOW.OBJDEBUG\LPTCONTROL.OBJDEBUG\MAIN.OBJDEBUG\MBSOFTWARE32BIT.OBJDEBUG\STDAFX.OBJDEBUG\MOC_MBSOFTWARE32BIT.OBJDEBUG\MOC_LPTCONTROL.OBJDEBUG\MOC_LOGINWINDOW.OBJDEBUG\QRC_MBSOFTWARE32BIT.OBJ
